{
	"request": {
		"$id": "schema://pig/route-project-delete-request.json",
		"type": "object",
		"required": ["params"],
		"properties": {
			"params": {
				"type": "object",
				"required": ["id"],
				"properties": {
					"id": {"$ref": "library.json#/definitions/urn"}
				}
			},
			"query": {
				"type": "object",
				"additionalProperties": false
			}
		}
	},
	"response": {
		"$id": "schema://pig/route-project-delete-response.json"
	}
}
